{
  "NODE_ENV": "production",
  "PORT": 3000,
  "MONGO_URL": "mongodb://localhost:27017/safetysmart-chargebee",
  "REDIS_URL": "redis://localhost:6379",
  "SESSION_SECRET": "c0b99aff16a309045c571b5164907223f4983719",
  "SESSION_COOKIE": "a4cb40897fe98bb59e8cb560b02b3a080bae7e97"
}
